<svg xmlns="http://www.w3.org/2000/svg" xmlns:xlink="http://www.w3.org/1999/xlink" width="20" height="20" version="1.1"><rect id="backgroundrect" width="100%" height="100%" x="0" y="0" fill="none" stroke="none"/>

<g class="currentLayer" style=""><title>Layer 1</title><g id="surface1" class="selected" fill="#ffffff" fill-opacity="1">
<path style="stroke: none; fill-rule: nonzero;" d="M 13.257812 10.101562 L 20 14.363281 L 20 5.660156 Z M 13.257812 10.101562 " id="svg_1" fill="#ffffff" fill-opacity="1"/>
<path style="stroke: none; fill-rule: nonzero;" d="M 0 5.660156 L 0 14.363281 L 6.742188 10.101562 Z M 0 5.660156 " id="svg_2" fill="#ffffff" fill-opacity="1"/>
<path style="stroke: none; fill-rule: nonzero;" d="M 18.75 3.125 L 1.25 3.125 C 0.625 3.125 0.132812 3.589844 0.0390625 4.1875 L 10 10.753906 L 19.960938 4.1875 C 19.867188 3.589844 19.375 3.125 18.75 3.125 Z M 18.75 3.125 " id="svg_3" fill="#ffffff" fill-opacity="1"/>
<path style="stroke: none; fill-rule: nonzero;" d="M 12.113281 10.859375 L 10.34375 12.023438 C 10.238281 12.089844 10.121094 12.125 10 12.125 C 9.878906 12.125 9.761719 12.089844 9.65625 12.023438 L 7.886719 10.855469 L 0.0390625 15.820312 C 0.136719 16.414062 0.628906 16.875 1.25 16.875 L 18.75 16.875 C 19.371094 16.875 19.863281 16.414062 19.960938 15.820312 Z M 12.113281 10.859375 " id="svg_4" fill="#ffffff" fill-opacity="1"/>
</g></g></svg>