<svg xmlns="http://www.w3.org/2000/svg" xmlns:xlink="http://www.w3.org/1999/xlink" width="24" height="24" version="1.1" style=""><rect id="backgroundrect" width="100%" height="100%" x="0" y="0" fill="none" stroke="none"/>

<g class="currentLayer" style=""><title>Layer 1</title><g id="surface1" class="selected" fill="#ffffff" fill-opacity="1">
<path style="stroke: none; fill-rule: nonzero;" d="M 9.25 0 L 1.75 0 C 0.785156 0 0 0.785156 0 1.75 L 0 6.25 C 0 7.214844 0.785156 8 1.75 8 L 9.25 8 C 10.214844 8 11 7.214844 11 6.25 L 11 1.75 C 11 0.785156 10.214844 0 9.25 0 Z M 9.25 0 " id="svg_1" fill="#ffffff" fill-opacity="1"/>
<path style="stroke: none; fill-rule: nonzero;" d="M 9.25 10 L 1.75 10 C 0.785156 10 0 10.785156 0 11.75 L 0 22.25 C 0 23.214844 0.785156 24 1.75 24 L 9.25 24 C 10.214844 24 11 23.214844 11 22.25 L 11 11.75 C 11 10.785156 10.214844 10 9.25 10 Z M 9.25 10 " id="svg_2" fill="#ffffff" fill-opacity="1"/>
<path style="stroke: none; fill-rule: nonzero;" d="M 22.25 16 L 14.75 16 C 13.785156 16 13 16.785156 13 17.75 L 13 22.25 C 13 23.214844 13.785156 24 14.75 24 L 22.25 24 C 23.214844 24 24 23.214844 24 22.25 L 24 17.75 C 24 16.785156 23.214844 16 22.25 16 Z M 22.25 16 " id="svg_3" fill="#ffffff" fill-opacity="1"/>
<path style="stroke: none; fill-rule: nonzero;" d="M 22.25 0 L 14.75 0 C 13.785156 0 13 0.785156 13 1.75 L 13 12.25 C 13 13.214844 13.785156 14 14.75 14 L 22.25 14 C 23.214844 14 24 13.214844 24 12.25 L 24 1.75 C 24 0.785156 23.214844 0 22.25 0 Z M 22.25 0 " id="svg_4" fill="#ffffff" fill-opacity="1"/>
</g></g></svg>