<?xml version="1.0" encoding="UTF-8"?>
<svg xmlns="http://www.w3.org/2000/svg" xmlns:xlink="http://www.w3.org/1999/xlink" width="18pt" height="18pt" viewBox="0 0 18 18" version="1.1">
<g id="surface1">
<path style=" stroke:none;fill-rule:nonzero;fill:rgb(92.941176%,34.509804%,52.156863%);fill-opacity:1;" d="M 15.359375 2.632812 C 11.851562 -0.878906 6.140625 -0.878906 2.632812 2.632812 C -0.878906 6.140625 -0.878906 11.851562 2.632812 15.359375 C 4.386719 17.113281 6.691406 17.992188 8.996094 17.992188 C 11.300781 17.992188 13.605469 17.113281 15.359375 15.359375 C 18.867188 11.851562 18.867188 6.140625 15.359375 2.632812 Z M 12.707031 11.648438 C 13 11.941406 13 12.414062 12.707031 12.707031 C 12.5625 12.855469 12.371094 12.929688 12.175781 12.929688 C 11.984375 12.929688 11.792969 12.855469 11.648438 12.707031 L 8.996094 10.054688 L 6.34375 12.707031 C 6.199219 12.855469 6.007812 12.925781 5.816406 12.925781 C 5.625 12.925781 5.429688 12.855469 5.285156 12.707031 C 4.992188 12.414062 4.992188 11.941406 5.285156 11.648438 L 7.933594 8.996094 L 5.285156 6.34375 C 4.992188 6.050781 4.992188 5.578125 5.285156 5.285156 C 5.578125 4.992188 6.050781 4.992188 6.34375 5.285156 L 8.996094 7.933594 L 11.648438 5.285156 C 11.941406 4.992188 12.414062 4.992188 12.707031 5.285156 C 13 5.578125 13 6.050781 12.707031 6.34375 L 10.054688 8.996094 Z M 12.707031 11.648438 "/>
</g>
</svg>
