<svg xmlns="http://www.w3.org/2000/svg" xmlns:xlink="http://www.w3.org/1999/xlink" width="24" height="24" version="1.1" style=""><rect id="backgroundrect" width="100%" height="100%" x="0" y="0" fill="none" stroke="none"/>

<g class="currentLayer" style=""><title>Layer 1</title><g id="surface1" class="selected" fill="#ffffff" fill-opacity="1">
<path style="stroke: none; fill-rule: nonzero;" d="M 12.007812 6.308594 L 3.441406 13.371094 C 3.441406 13.378906 3.441406 13.394531 3.433594 13.414062 C 3.429688 13.433594 3.425781 13.449219 3.425781 13.460938 L 3.425781 20.609375 C 3.425781 20.867188 3.523438 21.089844 3.710938 21.28125 C 3.898438 21.46875 4.121094 21.5625 4.382812 21.5625 L 10.101562 21.5625 L 10.101562 15.84375 L 13.914062 15.84375 L 13.914062 21.5625 L 19.632812 21.5625 C 19.894531 21.5625 20.117188 21.46875 20.304688 21.28125 C 20.492188 21.09375 20.589844 20.867188 20.589844 20.609375 L 20.589844 13.460938 C 20.589844 13.421875 20.582031 13.390625 20.574219 13.371094 Z M 12.007812 6.308594 " id="svg_1" fill="#ffffff" fill-opacity="1"/>
<path style="stroke: none; fill-rule: nonzero;" d="M 23.851562 11.761719 L 20.585938 9.050781 L 20.585938 2.972656 C 20.585938 2.835938 20.542969 2.71875 20.453125 2.628906 C 20.363281 2.542969 20.25 2.496094 20.109375 2.496094 L 17.25 2.496094 C 17.113281 2.496094 16.996094 2.542969 16.910156 2.628906 C 16.820312 2.71875 16.773438 2.835938 16.773438 2.972656 L 16.773438 5.878906 L 13.140625 2.839844 C 12.824219 2.582031 12.445312 2.453125 12.007812 2.453125 C 11.570312 2.453125 11.195312 2.582031 10.875 2.839844 L 0.164062 11.761719 C 0.0664062 11.839844 0.0117188 11.949219 0 12.082031 C -0.0078125 12.214844 0.0273438 12.332031 0.105469 12.433594 L 1.03125 13.535156 C 1.109375 13.625 1.214844 13.679688 1.34375 13.699219 C 1.460938 13.707031 1.582031 13.671875 1.699219 13.59375 L 12.007812 5 L 22.316406 13.59375 C 22.394531 13.664062 22.5 13.699219 22.628906 13.699219 L 22.671875 13.699219 C 22.800781 13.679688 22.90625 13.625 22.984375 13.535156 L 23.910156 12.433594 C 23.988281 12.332031 24.023438 12.214844 24.015625 12.082031 C 24.003906 11.949219 23.949219 11.839844 23.851562 11.761719 Z M 23.851562 11.761719 " id="svg_2" fill="#ffffff" fill-opacity="1"/>
</g></g></svg>